0515_uvm_adder/build/simv.log
Command: /home/hedu22/dev/0515_uvm_adder/././build/simv +UVM_TESTNAME=test -l ././build/simv.log +fsdbfile+./build/wave.fsdb
Chronologic VCS simulator copyright 1991-2024
Contains Synopsys proprietary information.
Compiler version W-2024.09-SP1_Full64; Runtime version W-2024.09-SP1_Full64;  May 23 18:47 2025
UVM_INFO /tools/synopsys/vcs/W-2024.09-SP1/etc/uvm-1.2/base/uvm_root.svh(402) @ 0: reporter [UVM/RELNOTES] 
----------------------------------------------------------------
UVM-1.2.Synopsys
(C) 2007-2014 Mentor Graphics Corporation
(C) 2007-2014 Cadence Design Systems, Inc.
(C) 2006-2014 Synopsys, Inc.
(C) 2011-2013 Cypress Semiconductor Corp.
(C) 2013-2014 NVIDIA Corporation
----------------------------------------------------------------

  ***********       IMPORTANT RELEASE NOTES         ************

  You are using a version of the UVM library that has been compiled
  with `UVM_NO_DEPRECATED undefined.
  See http://www.eda.org/svdb/view.php?id=3313 for more details.

  You are using a version of the UVM library that has been compiled
  with `UVM_OBJECT_DO_NOT_NEED_CONSTRUCTOR undefined.
  See http://www.eda.org/svdb/view.php?id=3770 for more details.

      (Specify +UVM_NO_RELNOTES to turn off this notice)

*Verdi* Loading libsscore_vcs202409.so
FSDB Dumper for VCS, Release Verdi_W-2024.09-SP2, Linux x86_64/64bit, 03/03/2025
(C) 1996 - 2025 by Synopsys, Inc.
*Verdi* FSDB WARNING: The FSDB file already exists. Overwriting the FSDB file may crash the programs that are using this file.
*Verdi* : Create FSDB file './build/wave.fsdb'
*Verdi* : Begin traversing the scopes, layer (0).
*Verdi* : End of traversing.
*Verdi* WARNING: Env/runtime option has specified fsdbfile name as "./build/wave.fsdb". Fsdbfile name in task "wave.fsdb" is ignored.
UVM_INFO @ 0: reporter [RNTST] Running test test...
UVM_INFO /tools/synopsys/vcs/W-2024.09-SP1/etc/uvm-1.2/base/uvm_root.svh(589) @ 0: reporter [UVMTOP] UVM testbench topology:
--------------------------------------------------------------
Name                       Type                    Size  Value
--------------------------------------------------------------
uvm_test_top               test                    -     @342 
  ENV                      adder_environment       -     @361 
    AGT                    adder_agent             -     @389 
      DRV                  adder_driver            -     @418 
        rsp_port           uvm_analysis_port       -     @437 
        seq_item_port      uvm_seq_item_pull_port  -     @427 
      MON                  adder_monitor           -     @399 
        WRITE              uvm_analysis_port       -     @408 
      SQR                  uvm_sequencer           -     @447 
        rsp_export         uvm_analysis_export     -     @456 
        seq_item_export    uvm_seq_item_pull_imp   -     @574 
        arbitration_queue  array                   0     -    
        lock_queue         array                   0     -    
        num_last_reqs      integral                32    'd1  
        num_last_rsps      integral                32    'd1  
    SCO                    adder_scoreboard        -     @370 
      READ                 uvm_analysis_imp        -     @379 
--------------------------------------------------------------


UVM_INFO ./tb/tb_adder.sv(44) @ 0: uvm_test_top.ENV.AGT.SQR@@SEQ [SEQ] adder item to drive a:62, b:75
UVM_INFO ./tb/tb_adder.sv(78) @ 50: uvm_test_top.ENV.AGT.DRV [DRV] Drive DUT a:62, b:75
UVM_INFO ./tb/tb_adder.sv(120) @ 60: uvm_test_top.ENV.AGT.MON [MON] sampled a:62, b:75, y:137
UVM_INFO ./tb/tb_adder.sv(147) @ 60: uvm_test_top.ENV.SCO [SCO] Recived a:62, b:75, y:137
ITEM: (adder_seq_item@589) { a: 'h3e  b: 'h4b  y: 'h89  } 
UVM_INFO ./tb/tb_adder.sv(151) @ 60: uvm_test_top.ENV.SCO [SCO] *** TEST PASSED ***

UVM_INFO ./tb/tb_adder.sv(44) @ 60: uvm_test_top.ENV.AGT.SQR@@SEQ [SEQ] adder item to drive a:181, b:39
UVM_INFO ./tb/tb_adder.sv(78) @ 150: uvm_test_top.ENV.AGT.DRV [DRV] Drive DUT a:181, b:39
UVM_INFO ./tb/tb_adder.sv(120) @ 160: uvm_test_top.ENV.AGT.MON [MON] sampled a:181, b:39, y:220
UVM_INFO ./tb/tb_adder.sv(147) @ 160: uvm_test_top.ENV.SCO [SCO] Recived a:181, b:39, y:220
ITEM: (adder_seq_item@589) { a: 'hb5  b: 'h27  y: 'hdc  } 
UVM_INFO ./tb/tb_adder.sv(151) @ 160: uvm_test_top.ENV.SCO [SCO] *** TEST PASSED ***

UVM_INFO ./tb/tb_adder.sv(44) @ 160: uvm_test_top.ENV.AGT.SQR@@SEQ [SEQ] adder item to drive a:253, b:184
UVM_INFO ./tb/tb_adder.sv(78) @ 250: uvm_test_top.ENV.AGT.DRV [DRV] Drive DUT a:253, b:184
UVM_INFO ./tb/tb_adder.sv(120) @ 260: uvm_test_top.ENV.AGT.MON [MON] sampled a:253, b:184, y:437
UVM_INFO ./tb/tb_adder.sv(147) @ 260: uvm_test_top.ENV.SCO [SCO] Recived a:253, b:184, y:437
ITEM: (adder_seq_item@589) { a: 'hfd  b: 'hb8  y: 'h1b5  } 
UVM_INFO ./tb/tb_adder.sv(151) @ 260: uvm_test_top.ENV.SCO [SCO] *** TEST PASSED ***

UVM_INFO ./tb/tb_adder.sv(44) @ 260: uvm_test_top.ENV.AGT.SQR@@SEQ [SEQ] adder item to drive a:168, b:189
UVM_INFO ./tb/tb_adder.sv(78) @ 350: uvm_test_top.ENV.AGT.DRV [DRV] Drive DUT a:168, b:189
UVM_INFO ./tb/tb_adder.sv(120) @ 360: uvm_test_top.ENV.AGT.MON [MON] sampled a:168, b:189, y:357
UVM_INFO ./tb/tb_adder.sv(147) @ 360: uvm_test_top.ENV.SCO [SCO] Recived a:168, b:189, y:357
ITEM: (adder_seq_item@589) { a: 'ha8  b: 'hbd  y: 'h165  } 
UVM_INFO ./tb/tb_adder.sv(151) @ 360: uvm_test_top.ENV.SCO [SCO] *** TEST PASSED ***

UVM_INFO ./tb/tb_adder.sv(44) @ 360: uvm_test_top.ENV.AGT.SQR@@SEQ [SEQ] adder item to drive a:19, b:134
UVM_INFO ./tb/tb_adder.sv(78) @ 450: uvm_test_top.ENV.AGT.DRV [DRV] Drive DUT a:19, b:134
UVM_INFO ./tb/tb_adder.sv(120) @ 460: uvm_test_top.ENV.AGT.MON [MON] sampled a:19, b:134, y:153
UVM_INFO ./tb/tb_adder.sv(147) @ 460: uvm_test_top.ENV.SCO [SCO] Recived a:19, b:134, y:153
ITEM: (adder_seq_item@589) { a: 'h13  b: 'h86  y: 'h99  } 
UVM_INFO ./tb/tb_adder.sv(151) @ 460: uvm_test_top.ENV.SCO [SCO] *** TEST PASSED ***

UVM_INFO ./tb/tb_adder.sv(44) @ 460: uvm_test_top.ENV.AGT.SQR@@SEQ [SEQ] adder item to drive a:53, b:46
UVM_INFO ./tb/tb_adder.sv(78) @ 550: uvm_test_top.ENV.AGT.DRV [DRV] Drive DUT a:53, b:46
UVM_INFO ./tb/tb_adder.sv(120) @ 560: uvm_test_top.ENV.AGT.MON [MON] sampled a:53, b:46, y:99
UVM_INFO ./tb/tb_adder.sv(147) @ 560: uvm_test_top.ENV.SCO [SCO] Recived a:53, b:46, y:99
ITEM: (adder_seq_item@589) { a: 'h35  b: 'h2e  y: 'h63  } 
UVM_INFO ./tb/tb_adder.sv(151) @ 560: uvm_test_top.ENV.SCO [SCO] *** TEST PASSED ***

UVM_INFO ./tb/tb_adder.sv(44) @ 560: uvm_test_top.ENV.AGT.SQR@@SEQ [SEQ] adder item to drive a:2, b:244
UVM_INFO ./tb/tb_adder.sv(78) @ 650: uvm_test_top.ENV.AGT.DRV [DRV] Drive DUT a:2, b:244
UVM_INFO ./tb/tb_adder.sv(120) @ 660: uvm_test_top.ENV.AGT.MON [MON] sampled a:2, b:244, y:246
UVM_INFO ./tb/tb_adder.sv(147) @ 660: uvm_test_top.ENV.SCO [SCO] Recived a:2, b:244, y:246
ITEM: (adder_seq_item@589) { a: 'h2  b: 'hf4  y: 'hf6  } 
UVM_INFO ./tb/tb_adder.sv(151) @ 660: uvm_test_top.ENV.SCO [SCO] *** TEST PASSED ***

UVM_INFO ./tb/tb_adder.sv(44) @ 660: uvm_test_top.ENV.AGT.SQR@@SEQ [SEQ] adder item to drive a:12, b:142
UVM_INFO ./tb/tb_adder.sv(78) @ 750: uvm_test_top.ENV.AGT.DRV [DRV] Drive DUT a:12, b:142
UVM_INFO ./tb/tb_adder.sv(120) @ 760: uvm_test_top.ENV.AGT.MON [MON] sampled a:12, b:142, y:154
UVM_INFO ./tb/tb_adder.sv(147) @ 760: uvm_test_top.ENV.SCO [SCO] Recived a:12, b:142, y:154
ITEM: (adder_seq_item@589) { a: 'hc  b: 'h8e  y: 'h9a  } 
UVM_INFO ./tb/tb_adder.sv(151) @ 760: uvm_test_top.ENV.SCO [SCO] *** TEST PASSED ***

UVM_INFO ./tb/tb_adder.sv(44) @ 760: uvm_test_top.ENV.AGT.SQR@@SEQ [SEQ] adder item to drive a:42, b:123
UVM_INFO ./tb/tb_adder.sv(78) @ 850: uvm_test_top.ENV.AGT.DRV [DRV] Drive DUT a:42, b:123
UVM_INFO ./tb/tb_adder.sv(120) @ 860: uvm_test_top.ENV.AGT.MON [MON] sampled a:42, b:123, y:165
UVM_INFO ./tb/tb_adder.sv(147) @ 860: uvm_test_top.ENV.SCO [SCO] Recived a:42, b:123, y:165
ITEM: (adder_seq_item@589) { a: 'h2a  b: 'h7b  y: 'ha5  } 
UVM_INFO ./tb/tb_adder.sv(151) @ 860: uvm_test_top.ENV.SCO [SCO] *** TEST PASSED ***

UVM_INFO ./tb/tb_adder.sv(44) @ 860: uvm_test_top.ENV.AGT.SQR@@SEQ [SEQ] adder item to drive a:104, b:161
UVM_INFO ./tb/tb_adder.sv(78) @ 950: uvm_test_top.ENV.AGT.DRV [DRV] Drive DUT a:104, b:161
UVM_INFO ./tb/tb_adder.sv(120) @ 960: uvm_test_top.ENV.AGT.MON [MON] sampled a:104, b:161, y:265
UVM_INFO ./tb/tb_adder.sv(147) @ 960: uvm_test_top.ENV.SCO [SCO] Recived a:104, b:161, y:265
ITEM: (adder_seq_item@589) { a: 'h68  b: 'ha1  y: 'h109  } 
UVM_INFO ./tb/tb_adder.sv(151) @ 960: uvm_test_top.ENV.SCO [SCO] *** TEST PASSED ***

UVM_INFO ./tb/tb_adder.sv(44) @ 960: uvm_test_top.ENV.AGT.SQR@@SEQ [SEQ] adder item to drive a:17, b:71
UVM_INFO ./tb/tb_adder.sv(78) @ 1050: uvm_test_top.ENV.AGT.DRV [DRV] Drive DUT a:17, b:71
UVM_INFO ./tb/tb_adder.sv(120) @ 1060: uvm_test_top.ENV.AGT.MON [MON] sampled a:17, b:71, y:88
UVM_INFO ./tb/tb_adder.sv(147) @ 1060: uvm_test_top.ENV.SCO [SCO] Recived a:17, b:71, y:88
ITEM: (adder_seq_item@589) { a: 'h11  b: 'h47  y: 'h58  } 
UVM_INFO ./tb/tb_adder.sv(151) @ 1060: uvm_test_top.ENV.SCO [SCO] *** TEST PASSED ***

UVM_INFO ./tb/tb_adder.sv(44) @ 1060: uvm_test_top.ENV.AGT.SQR@@SEQ [SEQ] adder item to drive a:147, b:255
UVM_INFO ./tb/tb_adder.sv(78) @ 1150: uvm_test_top.ENV.AGT.DRV [DRV] Drive DUT a:147, b:255
UVM_INFO ./tb/tb_adder.sv(120) @ 1160: uvm_test_top.ENV.AGT.MON [MON] sampled a:147, b:255, y:402
UVM_INFO ./tb/tb_adder.sv(147) @ 1160: uvm_test_top.ENV.SCO [SCO] Recived a:147, b:255, y:402
ITEM: (adder_seq_item@589) { a: 'h93  b: 'hff  y: 'h192  } 
UVM_INFO ./tb/tb_adder.sv(151) @ 1160: uvm_test_top.ENV.SCO [SCO] *** TEST PASSED ***

UVM_INFO ./tb/tb_adder.sv(44) @ 1160: uvm_test_top.ENV.AGT.SQR@@SEQ [SEQ] adder item to drive a:184, b:19
UVM_INFO ./tb/tb_adder.sv(78) @ 1250: uvm_test_top.ENV.AGT.DRV [DRV] Drive DUT a:184, b:19
UVM_INFO ./tb/tb_adder.sv(120) @ 1260: uvm_test_top.ENV.AGT.MON [MON] sampled a:184, b:19, y:203
UVM_INFO ./tb/tb_adder.sv(147) @ 1260: uvm_test_top.ENV.SCO [SCO] Recived a:184, b:19, y:203
ITEM: (adder_seq_item@589) { a: 'hb8  b: 'h13  y: 'hcb  } 
UVM_INFO ./tb/tb_adder.sv(151) @ 1260: uvm_test_top.ENV.SCO [SCO] *** TEST PASSED ***

UVM_INFO ./tb/tb_adder.sv(44) @ 1260: uvm_test_top.ENV.AGT.SQR@@SEQ [SEQ] adder item to drive a:73, b:107
UVM_INFO ./tb/tb_adder.sv(78) @ 1350: uvm_test_top.ENV.AGT.DRV [DRV] Drive DUT a:73, b:107
UVM_INFO ./tb/tb_adder.sv(120) @ 1360: uvm_test_top.ENV.AGT.MON [MON] sampled a:73, b:107, y:180
UVM_INFO ./tb/tb_adder.sv(147) @ 1360: uvm_test_top.ENV.SCO [SCO] Recived a:73, b:107, y:180
ITEM: (adder_seq_item@589) { a: 'h49  b: 'h6b  y: 'hb4  } 
UVM_INFO ./tb/tb_adder.sv(151) @ 1360: uvm_test_top.ENV.SCO [SCO] *** TEST PASSED ***

UVM_INFO ./tb/tb_adder.sv(44) @ 1360: uvm_test_top.ENV.AGT.SQR@@SEQ [SEQ] adder item to drive a:201, b:160
UVM_INFO ./tb/tb_adder.sv(78) @ 1450: uvm_test_top.ENV.AGT.DRV [DRV] Drive DUT a:201, b:160
UVM_INFO ./tb/tb_adder.sv(120) @ 1460: uvm_test_top.ENV.AGT.MON [MON] sampled a:201, b:160, y:361
UVM_INFO ./tb/tb_adder.sv(147) @ 1460: uvm_test_top.ENV.SCO [SCO] Recived a:201, b:160, y:361
ITEM: (adder_seq_item@589) { a: 'hc9  b: 'ha0  y: 'h169  } 
UVM_INFO ./tb/tb_adder.sv(151) @ 1460: uvm_test_top.ENV.SCO [SCO] *** TEST PASSED ***

UVM_INFO ./tb/tb_adder.sv(44) @ 1460: uvm_test_top.ENV.AGT.SQR@@SEQ [SEQ] adder item to drive a:202, b:9
UVM_INFO ./tb/tb_adder.sv(78) @ 1550: uvm_test_top.ENV.AGT.DRV [DRV] Drive DUT a:202, b:9
UVM_INFO ./tb/tb_adder.sv(120) @ 1560: uvm_test_top.ENV.AGT.MON [MON] sampled a:202, b:9, y:211
UVM_INFO ./tb/tb_adder.sv(147) @ 1560: uvm_test_top.ENV.SCO [SCO] Recived a:202, b:9, y:211
ITEM: (adder_seq_item@589) { a: 'hca  b: 'h9  y: 'hd3  } 
UVM_INFO ./tb/tb_adder.sv(151) @ 1560: uvm_test_top.ENV.SCO [SCO] *** TEST PASSED ***

UVM_INFO ./tb/tb_adder.sv(44) @ 1560: uvm_test_top.ENV.AGT.SQR@@SEQ [SEQ] adder item to drive a:249, b:88
UVM_INFO ./tb/tb_adder.sv(78) @ 1650: uvm_test_top.ENV.AGT.DRV [DRV] Drive DUT a:249, b:88
UVM_INFO ./tb/tb_adder.sv(120) @ 1660: uvm_test_top.ENV.AGT.MON [MON] sampled a:249, b:88, y:337
UVM_INFO ./tb/tb_adder.sv(147) @ 1660: uvm_test_top.ENV.SCO [SCO] Recived a:249, b:88, y:337
ITEM: (adder_seq_item@589) { a: 'hf9  b: 'h58  y: 'h151  } 
UVM_INFO ./tb/tb_adder.sv(151) @ 1660: uvm_test_top.ENV.SCO [SCO] *** TEST PASSED ***

UVM_INFO ./tb/tb_adder.sv(44) @ 1660: uvm_test_top.ENV.AGT.SQR@@SEQ [SEQ] adder item to drive a:192, b:112
UVM_INFO ./tb/tb_adder.sv(78) @ 1750: uvm_test_top.ENV.AGT.DRV [DRV] Drive DUT a:192, b:112
UVM_INFO ./tb/tb_adder.sv(120) @ 1760: uvm_test_top.ENV.AGT.MON [MON] sampled a:192, b:112, y:304
UVM_INFO ./tb/tb_adder.sv(147) @ 1760: uvm_test_top.ENV.SCO [SCO] Recived a:192, b:112, y:304
ITEM: (adder_seq_item@589) { a: 'hc0  b: 'h70  y: 'h130  } 
UVM_INFO ./tb/tb_adder.sv(151) @ 1760: uvm_test_top.ENV.SCO [SCO] *** TEST PASSED ***

UVM_INFO ./tb/tb_adder.sv(44) @ 1760: uvm_test_top.ENV.AGT.SQR@@SEQ [SEQ] adder item to drive a:244, b:54
UVM_INFO ./tb/tb_adder.sv(78) @ 1850: uvm_test_top.ENV.AGT.DRV [DRV] Drive DUT a:244, b:54
UVM_INFO ./tb/tb_adder.sv(120) @ 1860: uvm_test_top.ENV.AGT.MON [MON] sampled a:244, b:54, y:298
UVM_INFO ./tb/tb_adder.sv(147) @ 1860: uvm_test_top.ENV.SCO [SCO] Recived a:244, b:54, y:298
ITEM: (adder_seq_item@589) { a: 'hf4  b: 'h36  y: 'h12a  } 
UVM_INFO ./tb/tb_adder.sv(151) @ 1860: uvm_test_top.ENV.SCO [SCO] *** TEST PASSED ***

UVM_INFO ./tb/tb_adder.sv(44) @ 1860: uvm_test_top.ENV.AGT.SQR@@SEQ [SEQ] adder item to drive a:245, b:162
UVM_INFO ./tb/tb_adder.sv(78) @ 1950: uvm_test_top.ENV.AGT.DRV [DRV] Drive DUT a:245, b:162
UVM_INFO ./tb/tb_adder.sv(120) @ 1960: uvm_test_top.ENV.AGT.MON [MON] sampled a:245, b:162, y:407
UVM_INFO ./tb/tb_adder.sv(147) @ 1960: uvm_test_top.ENV.SCO [SCO] Recived a:245, b:162, y:407
ITEM: (adder_seq_item@589) { a: 'hf5  b: 'ha2  y: 'h197  } 
UVM_INFO ./tb/tb_adder.sv(151) @ 1960: uvm_test_top.ENV.SCO [SCO] *** TEST PASSED ***

UVM_INFO ./tb/tb_adder.sv(44) @ 1960: uvm_test_top.ENV.AGT.SQR@@SEQ [SEQ] adder item to drive a:89, b:53
UVM_INFO ./tb/tb_adder.sv(78) @ 2050: uvm_test_top.ENV.AGT.DRV [DRV] Drive DUT a:89, b:53
UVM_INFO ./tb/tb_adder.sv(120) @ 2060: uvm_test_top.ENV.AGT.MON [MON] sampled a:89, b:53, y:142
UVM_INFO ./tb/tb_adder.sv(147) @ 2060: uvm_test_top.ENV.SCO [SCO] Recived a:89, b:53, y:142
ITEM: (adder_seq_item@589) { a: 'h59  b: 'h35  y: 'h8e  } 
UVM_INFO ./tb/tb_adder.sv(151) @ 2060: uvm_test_top.ENV.SCO [SCO] *** TEST PASSED ***

UVM_INFO ./tb/tb_adder.sv(44) @ 2060: uvm_test_top.ENV.AGT.SQR@@SEQ [SEQ] adder item to drive a:244, b:16
UVM_INFO ./tb/tb_adder.sv(78) @ 2150: uvm_test_top.ENV.AGT.DRV [DRV] Drive DUT a:244, b:16
UVM_INFO ./tb/tb_adder.sv(120) @ 2160: uvm_test_top.ENV.AGT.MON [MON] sampled a:244, b:16, y:260
UVM_INFO ./tb/tb_adder.sv(147) @ 2160: uvm_test_top.ENV.SCO [SCO] Recived a:244, b:16, y:260
ITEM: (adder_seq_item@589) { a: 'hf4  b: 'h10  y: 'h104  } 
UVM_INFO ./tb/tb_adder.sv(151) @ 2160: uvm_test_top.ENV.SCO [SCO] *** TEST PASSED ***

UVM_INFO ./tb/tb_adder.sv(44) @ 2160: uvm_test_top.ENV.AGT.SQR@@SEQ [SEQ] adder item to drive a:143, b:102
UVM_INFO ./tb/tb_adder.sv(78) @ 2250: uvm_test_top.ENV.AGT.DRV [DRV] Drive DUT a:143, b:102
UVM_INFO ./tb/tb_adder.sv(120) @ 2260: uvm_test_top.ENV.AGT.MON [MON] sampled a:143, b:102, y:245
UVM_INFO ./tb/tb_adder.sv(147) @ 2260: uvm_test_top.ENV.SCO [SCO] Recived a:143, b:102, y:245
ITEM: (adder_seq_item@589) { a: 'h8f  b: 'h66  y: 'hf5  } 
UVM_INFO ./tb/tb_adder.sv(151) @ 2260: uvm_test_top.ENV.SCO [SCO] *** TEST PASSED ***

UVM_INFO ./tb/tb_adder.sv(44) @ 2260: uvm_test_top.ENV.AGT.SQR@@SEQ [SEQ] adder item to drive a:166, b:181
UVM_INFO ./tb/tb_adder.sv(78) @ 2350: uvm_test_top.ENV.AGT.DRV [DRV] Drive DUT a:166, b:181
UVM_INFO ./tb/tb_adder.sv(120) @ 2360: uvm_test_top.ENV.AGT.MON [MON] sampled a:166, b:181, y:347
UVM_INFO ./tb/tb_adder.sv(147) @ 2360: uvm_test_top.ENV.SCO [SCO] Recived a:166, b:181, y:347
ITEM: (adder_seq_item@589) { a: 'ha6  b: 'hb5  y: 'h15b  } 
UVM_INFO ./tb/tb_adder.sv(151) @ 2360: uvm_test_top.ENV.SCO [SCO] *** TEST PASSED ***

UVM_INFO ./tb/tb_adder.sv(44) @ 2360: uvm_test_top.ENV.AGT.SQR@@SEQ [SEQ] adder item to drive a:206, b:141
UVM_INFO ./tb/tb_adder.sv(78) @ 2450: uvm_test_top.ENV.AGT.DRV [DRV] Drive DUT a:206, b:141
UVM_INFO ./tb/tb_adder.sv(120) @ 2460: uvm_test_top.ENV.AGT.MON [MON] sampled a:206, b:141, y:347
UVM_INFO ./tb/tb_adder.sv(147) @ 2460: uvm_test_top.ENV.SCO [SCO] Recived a:206, b:141, y:347
ITEM: (adder_seq_item@589) { a: 'hce  b: 'h8d  y: 'h15b  } 
UVM_INFO ./tb/tb_adder.sv(151) @ 2460: uvm_test_top.ENV.SCO [SCO] *** TEST PASSED ***

UVM_INFO ./tb/tb_adder.sv(44) @ 2460: uvm_test_top.ENV.AGT.SQR@@SEQ [SEQ] adder item to drive a:29, b:42
UVM_INFO ./tb/tb_adder.sv(78) @ 2550: uvm_test_top.ENV.AGT.DRV [DRV] Drive DUT a:29, b:42
UVM_INFO ./tb/tb_adder.sv(120) @ 2560: uvm_test_top.ENV.AGT.MON [MON] sampled a:29, b:42, y:71
UVM_INFO ./tb/tb_adder.sv(147) @ 2560: uvm_test_top.ENV.SCO [SCO] Recived a:29, b:42, y:71
ITEM: (adder_seq_item@589) { a: 'h1d  b: 'h2a  y: 'h47  } 
UVM_INFO ./tb/tb_adder.sv(151) @ 2560: uvm_test_top.ENV.SCO [SCO] *** TEST PASSED ***

UVM_INFO ./tb/tb_adder.sv(44) @ 2560: uvm_test_top.ENV.AGT.SQR@@SEQ [SEQ] adder item to drive a:212, b:33
UVM_INFO ./tb/tb_adder.sv(78) @ 2650: uvm_test_top.ENV.AGT.DRV [DRV] Drive DUT a:212, b:33
UVM_INFO ./tb/tb_adder.sv(120) @ 2660: uvm_test_top.ENV.AGT.MON [MON] sampled a:212, b:33, y:245
UVM_INFO ./tb/tb_adder.sv(147) @ 2660: uvm_test_top.ENV.SCO [SCO] Recived a:212, b:33, y:245
ITEM: (adder_seq_item@589) { a: 'hd4  b: 'h21  y: 'hf5  } 
UVM_INFO ./tb/tb_adder.sv(151) @ 2660: uvm_test_top.ENV.SCO [SCO] *** TEST PASSED ***

UVM_INFO ./tb/tb_adder.sv(44) @ 2660: uvm_test_top.ENV.AGT.SQR@@SEQ [SEQ] adder item to drive a:141, b:165
UVM_INFO ./tb/tb_adder.sv(78) @ 2750: uvm_test_top.ENV.AGT.DRV [DRV] Drive DUT a:141, b:165
UVM_INFO ./tb/tb_adder.sv(120) @ 2760: uvm_test_top.ENV.AGT.MON [MON] sampled a:141, b:165, y:306
UVM_INFO ./tb/tb_adder.sv(147) @ 2760: uvm_test_top.ENV.SCO [SCO] Recived a:141, b:165, y:306
ITEM: (adder_seq_item@589) { a: 'h8d  b: 'ha5  y: 'h132  } 
UVM_INFO ./tb/tb_adder.sv(151) @ 2760: uvm_test_top.ENV.SCO [SCO] *** TEST PASSED ***

UVM_INFO ./tb/tb_adder.sv(44) @ 2760: uvm_test_top.ENV.AGT.SQR@@SEQ [SEQ] adder item to drive a:8, b:217
UVM_INFO ./tb/tb_adder.sv(78) @ 2850: uvm_test_top.ENV.AGT.DRV [DRV] Drive DUT a:8, b:217
UVM_INFO ./tb/tb_adder.sv(120) @ 2860: uvm_test_top.ENV.AGT.MON [MON] sampled a:8, b:217, y:225
UVM_INFO ./tb/tb_adder.sv(147) @ 2860: uvm_test_top.ENV.SCO [SCO] Recived a:8, b:217, y:225
ITEM: (adder_seq_item@589) { a: 'h8  b: 'hd9  y: 'he1  } 
UVM_INFO ./tb/tb_adder.sv(151) @ 2860: uvm_test_top.ENV.SCO [SCO] *** TEST PASSED ***

UVM_INFO ./tb/tb_adder.sv(44) @ 2860: uvm_test_top.ENV.AGT.SQR@@SEQ [SEQ] adder item to drive a:76, b:66
UVM_INFO ./tb/tb_adder.sv(78) @ 2950: uvm_test_top.ENV.AGT.DRV [DRV] Drive DUT a:76, b:66
UVM_INFO ./tb/tb_adder.sv(120) @ 2960: uvm_test_top.ENV.AGT.MON [MON] sampled a:76, b:66, y:142
UVM_INFO ./tb/tb_adder.sv(147) @ 2960: uvm_test_top.ENV.SCO [SCO] Recived a:76, b:66, y:142
ITEM: (adder_seq_item@589) { a: 'h4c  b: 'h42  y: 'h8e  } 
UVM_INFO ./tb/tb_adder.sv(151) @ 2960: uvm_test_top.ENV.SCO [SCO] *** TEST PASSED ***

UVM_INFO ./tb/tb_adder.sv(44) @ 2960: uvm_test_top.ENV.AGT.SQR@@SEQ [SEQ] adder item to drive a:186, b:24
UVM_INFO ./tb/tb_adder.sv(78) @ 3050: uvm_test_top.ENV.AGT.DRV [DRV] Drive DUT a:186, b:24
UVM_INFO ./tb/tb_adder.sv(120) @ 3060: uvm_test_top.ENV.AGT.MON [MON] sampled a:186, b:24, y:210
UVM_INFO ./tb/tb_adder.sv(147) @ 3060: uvm_test_top.ENV.SCO [SCO] Recived a:186, b:24, y:210
ITEM: (adder_seq_item@589) { a: 'hba  b: 'h18  y: 'hd2  } 
UVM_INFO ./tb/tb_adder.sv(151) @ 3060: uvm_test_top.ENV.SCO [SCO] *** TEST PASSED ***

UVM_INFO ./tb/tb_adder.sv(44) @ 3060: uvm_test_top.ENV.AGT.SQR@@SEQ [SEQ] adder item to drive a:19, b:115
UVM_INFO ./tb/tb_adder.sv(78) @ 3150: uvm_test_top.ENV.AGT.DRV [DRV] Drive DUT a:19, b:115
UVM_INFO ./tb/tb_adder.sv(120) @ 3160: uvm_test_top.ENV.AGT.MON [MON] sampled a:19, b:115, y:134
UVM_INFO ./tb/tb_adder.sv(147) @ 3160: uvm_test_top.ENV.SCO [SCO] Recived a:19, b:115, y:134
ITEM: (adder_seq_item@589) { a: 'h13  b: 'h73  y: 'h86  } 
UVM_INFO ./tb/tb_adder.sv(151) @ 3160: uvm_test_top.ENV.SCO [SCO] *** TEST PASSED ***

UVM_INFO ./tb/tb_adder.sv(44) @ 3160: uvm_test_top.ENV.AGT.SQR@@SEQ [SEQ] adder item to drive a:219, b:236
UVM_INFO ./tb/tb_adder.sv(78) @ 3250: uvm_test_top.ENV.AGT.DRV [DRV] Drive DUT a:219, b:236
UVM_INFO ./tb/tb_adder.sv(120) @ 3260: uvm_test_top.ENV.AGT.MON [MON] sampled a:219, b:236, y:455
UVM_INFO ./tb/tb_adder.sv(147) @ 3260: uvm_test_top.ENV.SCO [SCO] Recived a:219, b:236, y:455
ITEM: (adder_seq_item@589) { a: 'hdb  b: 'hec  y: 'h1c7  } 
UVM_INFO ./tb/tb_adder.sv(151) @ 3260: uvm_test_top.ENV.SCO [SCO] *** TEST PASSED ***

UVM_INFO ./tb/tb_adder.sv(44) @ 3260: uvm_test_top.ENV.AGT.SQR@@SEQ [SEQ] adder item to drive a:192, b:162
UVM_INFO ./tb/tb_adder.sv(78) @ 3350: uvm_test_top.ENV.AGT.DRV [DRV] Drive DUT a:192, b:162
UVM_INFO ./tb/tb_adder.sv(120) @ 3360: uvm_test_top.ENV.AGT.MON [MON] sampled a:192, b:162, y:354
UVM_INFO ./tb/tb_adder.sv(147) @ 3360: uvm_test_top.ENV.SCO [SCO] Recived a:192, b:162, y:354
ITEM: (adder_seq_item@589) { a: 'hc0  b: 'ha2  y: 'h162  } 
UVM_INFO ./tb/tb_adder.sv(151) @ 3360: uvm_test_top.ENV.SCO [SCO] *** TEST PASSED ***

UVM_INFO ./tb/tb_adder.sv(44) @ 3360: uvm_test_top.ENV.AGT.SQR@@SEQ [SEQ] adder item to drive a:150, b:102
UVM_INFO ./tb/tb_adder.sv(78) @ 3450: uvm_test_top.ENV.AGT.DRV [DRV] Drive DUT a:150, b:102
UVM_INFO ./tb/tb_adder.sv(120) @ 3460: uvm_test_top.ENV.AGT.MON [MON] sampled a:150, b:102, y:252
UVM_INFO ./tb/tb_adder.sv(147) @ 3460: uvm_test_top.ENV.SCO [SCO] Recived a:150, b:102, y:252
ITEM: (adder_seq_item@589) { a: 'h96  b: 'h66  y: 'hfc  } 
UVM_INFO ./tb/tb_adder.sv(151) @ 3460: uvm_test_top.ENV.SCO [SCO] *** TEST PASSED ***

UVM_INFO ./tb/tb_adder.sv(44) @ 3460: uvm_test_top.ENV.AGT.SQR@@SEQ [SEQ] adder item to drive a:198, b:171
UVM_INFO ./tb/tb_adder.sv(78) @ 3550: uvm_test_top.ENV.AGT.DRV [DRV] Drive DUT a:198, b:171
UVM_INFO ./tb/tb_adder.sv(120) @ 3560: uvm_test_top.ENV.AGT.MON [MON] sampled a:198, b:171, y:369
UVM_INFO ./tb/tb_adder.sv(147) @ 3560: uvm_test_top.ENV.SCO [SCO] Recived a:198, b:171, y:369
ITEM: (adder_seq_item@589) { a: 'hc6  b: 'hab  y: 'h171  } 
UVM_INFO ./tb/tb_adder.sv(151) @ 3560: uvm_test_top.ENV.SCO [SCO] *** TEST PASSED ***

UVM_INFO ./tb/tb_adder.sv(44) @ 3560: uvm_test_top.ENV.AGT.SQR@@SEQ [SEQ] adder item to drive a:218, b:130
UVM_INFO ./tb/tb_adder.sv(78) @ 3650: uvm_test_top.ENV.AGT.DRV [DRV] Drive DUT a:218, b:130
